Take-home_Ex02 – ISSS608new
…
To identify any patterns in communications between the different people or companies, only “sub_type”, “name”, “content” and “timestamp” columns were used to do these analysis.

1. Make an entity list
2. Make a Content for communications List
3. Make a new list - to identify the entities involved in the messages in the communications
4. Create new Edges data frame (Entity -> Entity)

Code

entity_list <- subset(mc3_nodes_final, type == "Entity", select = c(sub_type, name))

entity_list

# A tibble: 72 × 2
   sub_type name          
   <chr>    <chr>         
 1 Person   Sam           
 2 Person   Kelly         
 3 Person   Nadia Conti   
 4 Person   Elise         
 5 Person   Liam Thorne   
 6 Person   Samantha Blake
 7 Person   Davis         
 8 Person   Rodriguez     
 9 Person   Sailor Shift  
10 Person   Clepper Jensen
# ℹ 62 more rows

Code

comms_list <- subset(mc3_nodes_final, type == "Event" & label == "Communication", select = c(timestamp, content))

comms_list

# A tibble: 584 × 2
   timestamp           content                                                  
   <chr>               <chr>                                                    
 1 2040-10-01 08:09:00 Hey The Intern, it's The Lookout! Just spotted a pod of …
 2 2040-10-01 08:10:00 Hey The Lookout, The Intern here! I'd absolutely love to…
 3 2040-10-01 08:13:00 Sam, it's Kelly! Let's meet at Sunrise Point at 7 AM for…
 4 2040-10-01 08:16:00 Mrs. Money, it's The Intern. Just checking in to see wha…
 5 2040-10-01 08:19:00 Boss, it's Mrs. Money. I've reviewed our operational fun…
 6 2040-10-01 08:21:00 Mrs. Money, this is Boss. I'm available tomorrow at 3 PM…
 7 2040-10-01 08:24:00 Boss, Mrs. Money here. I'll bring the updated projection…
 8 2040-10-01 08:26:00 Middleman, this is Boss. I'd like to move our meeting fo…
 9 2040-10-01 08:29:00 Boss, this is The Middleman. I can meet earlier as reque…
10 2040-10-01 08:32:00 Middleman, this is Boss. Let's meet tomorrow at 4PM at t…
# ℹ 574 more rows
…
